sim_gate/dump.vcd
$date
    Nov 22, 2021  12:00:43
$end
$version
    TOOL:	xmsim(64)	18.03-s018
$end
$timescale
    1 ps
$end

$scope module counter_tb $end

$scope module counter1 $end
$var wire      1 !    enable  $end
$var wire      1 "    clk  $end
$var wire      1 #    reset  $end
$var wire      1 $    out [7] $end
$var wire      1 %    out [6] $end
$var wire      1 &    out [5] $end
$var wire      1 '    out [4] $end
$var wire      1 (    out [3] $end
$var wire      1 )    out [2] $end
$var wire      1 *    out [1] $end
$var wire      1 +    out [0] $end
$var wire      1 ,    n_3  $end
$var wire      1 -    n_4  $end
$var wire      1 .    n_5  $end
$var wire      1 /    n_6  $end
$var wire      1 0    n_7  $end
$var wire      1 1    n_8  $end
$var wire      1 2    n_9  $end
$var wire      1 3    n_10  $end
$var wire      1 4    n_11  $end
$var wire      1 5    n_13  $end
$var wire      1 6    n_14  $end
$var wire      1 7    n_16  $end
$var wire      1 8    n_17  $end
$var wire      1 9    n_18  $end
$var wire      1 :    n_19  $end
$var wire      1 ;    n_20  $end
$var wire      1 <    n_21  $end
$var wire      1 =    n_22  $end
$var wire      1 >    n_23  $end
$var wire      1 ?    n_24  $end
$var wire      1 @    n_25  $end
$var wire      1 A    n_27  $end
$var wire      1 B    n_28  $end
$var wire      1 C    n_29  $end
$var wire      1 D    n_30  $end
$var wire      1 E    n_31  $end
$var wire      1 F    n_32  $end
$var wire      1 G    n_33  $end
$var wire      1 H    n_34  $end
$var wire      1 I    n_35  $end
$var wire      1 J    n_36  $end
$var wire      1 K    n_37  $end
$var wire      1 L    n_38  $end
$var wire      1 M    n_40  $end
$var wire      1 N    n_41  $end
$var wire      1 O    n_42  $end
$var wire      1 P    n_43  $end
$var wire      1 Q    n_44  $end
$var wire      1 R    n_45  $end
$var wire      1 S    n_46  $end
$var wire      1 T    n_47  $end
$var wire      1 U    n_49  $end
$var wire      1 V    n_50  $end
$var wire      1 W    n_51  $end
$var wire      1 X    n_52  $end
$var wire      1 Y    n_53  $end
$var wire      1 Z    n_54  $end
$var wire      1 [    n_55  $end
$var wire      1 \    n_56  $end
$var wire      1 ]    n_57  $end
$var wire      1 ^    n_58  $end
$var wire      1 _    n_59  $end
$var wire      1 `    n_60  $end
$var wire      1 a    n_61  $end
$var wire      1 b    n_62  $end
$var wire      1 c    n_63  $end
$var wire      1 d    n_64  $end
$var wire      1 e    n_65  $end
$var wire      1 f    n_79  $end
$var wire      1 g    out[0]_58  $end
$var wire      1 h    out[1]_59  $end
$var wire      1 i    out[2]_60  $end
$var wire      1 j    out[3]_61  $end
$var wire      1 k    out[4]_62  $end
$var wire      1 l    out[5]_63  $end
$var wire      1 m    out[6]_64  $end
$var wire      1 n    out[7]_65  $end

$scope module \out_reg[7]  $end
$var wire      1 "    CK  $end
$var wire      1 e    D  $end
$var reg       1 o    Q $end
$var reg       1 p    QN $end
$upscope $end


$scope module g227__8780 $end
$var wire      1 e    Y  $end
$var wire      1 #    A  $end
$var wire      1 c    B  $end
$var wire      1 q    int_fwire_0  $end
$upscope $end


$scope module \out_reg[6]  $end
$var wire      1 "    CK  $end
$var wire      1 d    D  $end
$var reg       1 r    Q $end
$var reg       1 s    QN $end
$upscope $end


$scope module g229__4296 $end
$var wire      1 d    Y  $end
$var wire      1 #    A  $end
$var wire      1 a    B  $end
$var wire      1 t    int_fwire_0  $end
$upscope $end


$scope module g228__3772 $end
$var wire      1 c    Y  $end
$var wire      1 ,    A  $end
$var wire      1 `    B  $end
$var wire      1 u    int_fwire_0  $end
$upscope $end


$scope module \out_reg[5]  $end
$var wire      1 "    CK  $end
$var wire      1 b    D  $end
$var reg       1 v    Q $end
$var reg       1 w    QN $end
$upscope $end


$scope module g233__1474 $end
$var wire      1 b    Y  $end
$var wire      1 #    A  $end
$var wire      1 ]    B  $end
$var wire      1 x    int_fwire_0  $end
$upscope $end


$scope module g234__4547 $end
$var wire      1 a    Y  $end
$var wire      1 2    A  $end
$var wire      1 \    B  $end
$var wire      1 y    int_fwire_0  $end
$upscope $end


$scope module g231__9682 $end
$var wire      1 `    Y  $end
$var wire      1 [    A  $end
$var wire      1 ^    B  $end
$var wire      1 z    int_fwire_0  $end
$upscope $end


$scope module \out_reg[4]  $end
$var wire      1 "    CK  $end
$var wire      1 _    D  $end
$var reg       1 {    Q $end
$var reg       1 |    QN $end
$upscope $end


$scope module g235__2683 $end
$var wire      1 _    Y  $end
$var wire      1 #    A  $end
$var wire      1 Y    B  $end
$var wire      1 }    int_fwire_0  $end
$upscope $end


$scope module g236__1309 $end
$var wire      1 ^    Y  $end
$var wire      1 V    A  $end
$var wire      1 U    B  $end
$var wire      1 ~    int_fwire_0  $end
$upscope $end


$scope module g237__6877 $end
$var wire      1 ]    Y  $end
$var wire      1 -    A  $end
$var wire      1 Z    B  $end
$var wire      1 !!   int_fwire_0  $end
$upscope $end


$scope module g238__2900 $end
$var wire      1 \    Y  $end
$var wire      1 [    A  $end
$var wire      1 W    B  $end
$var wire      1 "!   int_fwire_0  $end
$upscope $end


$scope module \out_reg[3]  $end
$var wire      1 "    CK  $end
$var wire      1 X    D  $end
$var reg       1 #!   Q $end
$var reg       1 $!   QN $end
$upscope $end


$scope module g243__2391 $end
$var wire      1 Z    Y  $end
$var wire      1 [    A  $end
$var wire      1 N    B  $end
$var wire      1 %!   int_fwire_0  $end
$upscope $end


$scope module g244__7675 $end
$var wire      1 Y    Y  $end
$var wire      1 4    A  $end
$var wire      1 R    B  $end
$var wire      1 &!   int_fwire_0  $end
$upscope $end


$scope module g245__7118 $end
$var wire      1 X    Y  $end
$var wire      1 #    A  $end
$var wire      1 Q    B  $end
$var wire      1 '!   int_fwire_0  $end
$upscope $end


$scope module g246__8757 $end
$var wire      1 W    Y  $end
$var wire      1 P    A  $end
$var wire      1 T    B  $end
$var wire      1 (!   int_fwire_0  $end
$upscope $end


$scope module g240__1786 $end
$var wire      1 V    Y  $end
$var wire      1 n    A  $end
$var wire      1 S    B  $end
$var wire      1 )!   int_fwire_0  $end
$upscope $end


$scope module \out_reg[2]  $end
$var wire      1 "    CK  $end
$var wire      1 O    D  $end
$var reg       1 *!   Q $end
$var reg       1 +!   QN $end
$upscope $end


$scope module g241__5953 $end
$var wire      1 U    Y  $end
$var wire      1 $    A  $end
$var wire      1 T    B  $end
$var wire      1 ,!   int_fwire_0  $end
$upscope $end


$scope module g247 $end
$var wire      1 S    Y  $end
$var wire      1 T    A  $end
$upscope $end


$scope module g248__5703 $end
$var wire      1 R    Y  $end
$var wire      1 [    A  $end
$var wire      1 L    B  $end
$var wire      1 -!   int_fwire_0  $end
$upscope $end


$scope module g251__7114 $end
$var wire      1 Q    Y  $end
$var wire      1 3    A  $end
$var wire      1 I    B  $end
$var wire      1 .!   int_fwire_0  $end
$upscope $end


$scope module g254__5266 $end
$var wire      1 P    Y  $end
$var wire      1 m    A  $end
$var wire      1 M    B  $end
$var wire      1 /!   int_fwire_0  $end
$upscope $end


$scope module g253__2250 $end
$var wire      1 O    Y  $end
$var wire      1 #    A  $end
$var wire      1 J    B  $end
$var wire      1 0!   int_fwire_0  $end
$upscope $end


$scope module g252__6083 $end
$var wire      1 N    Y  $end
$var wire      1 G    A  $end
$var wire      1 M    B  $end
$var wire      1 1!   int_fwire_0  $end
$upscope $end


$scope module \out_reg[1]  $end
$var wire      1 "    CK  $end
$var wire      1 K    D  $end
$var reg       1 2!   Q $end
$var reg       1 3!   QN $end
$upscope $end


$scope module g249__2703 $end
$var wire      1 T    Y  $end
$var wire      1 %    A  $end
$var wire      1 H    B  $end
$var wire      1 4!   int_fwire_0  $end
$upscope $end


$scope module g256__5795 $end
$var wire      1 L    Y  $end
$var wire      1 E    A  $end
$var wire      1 F    B  $end
$var wire      1 5!   int_fwire_0  $end
$upscope $end


$scope module g257__7344 $end
$var wire      1 K    Y  $end
$var wire      1 #    A  $end
$var wire      1 C    B  $end
$var wire      1 6!   int_fwire_0  $end
$upscope $end


$scope module g259__1840 $end
$var wire      1 J    Y  $end
$var wire      1 .    A  $end
$var wire      1 D    B  $end
$var wire      1 7!   int_fwire_0  $end
$upscope $end


$scope module g255__5019 $end
$var wire      1 I    Y  $end
$var wire      1 [    A  $end
$var wire      1 B    B  $end
$var wire      1 8!   int_fwire_0  $end
$upscope $end


$scope module g258 $end
$var wire      1 M    Y  $end
$var wire      1 H    A  $end
$upscope $end


$scope module g260__1857 $end
$var wire      1 G    Y  $end
$var wire      1 l    A  $end
$var wire      1 F    B  $end
$var wire      1 9!   int_fwire_0  $end
$upscope $end


$scope module g261__9906 $end
$var wire      1 H    Y  $end
$var wire      1 l    A  $end
$var wire      1 F    B  $end
$var wire      1 :!   int_fwire_0  $end
$upscope $end


$scope module g265__8780 $end
$var wire      1 E    Y  $end
$var wire      1 k    A  $end
$var wire      1 A    B  $end
$var wire      1 ;!   int_fwire_0  $end
$upscope $end


$scope module g266__4296 $end
$var wire      1 D    Y  $end
$var wire      1 [    A  $end
$var wire      1 =    B  $end
$var wire      1 <!   int_fwire_0  $end
$upscope $end


$scope module g262__3772 $end
$var wire      1 C    Y  $end
$var wire      1 /    A  $end
$var wire      1 >    B  $end
$var wire      1 =!   int_fwire_0  $end
$upscope $end


$scope module g263__1474 $end
$var wire      1 B    Y  $end
$var wire      1 <    A  $end
$var wire      1 A    B  $end
$var wire      1 >!   int_fwire_0  $end
$upscope $end


$scope module \out_reg[0]  $end
$var wire      1 "    CK  $end
$var wire      1 @    D  $end
$var reg       1 ?!   Q $end
$var reg       1 @!   QN $end
$upscope $end


$scope module g267__4547 $end
$var wire      1 F    Y  $end
$var wire      1 '    A  $end
$var wire      1 ?    B  $end
$var wire      1 A!   int_fwire_0  $end
$upscope $end


$scope module g268__9682 $end
$var wire      1 @    Y  $end
$var wire      1 #    A  $end
$var wire      1 9    B  $end
$var wire      1 B!   int_fwire_0  $end
$upscope $end


$scope module g270 $end
$var wire      1 A    Y  $end
$var wire      1 ?    A  $end
$upscope $end


$scope module g271__2683 $end
$var wire      1 >    Y  $end
$var wire      1 [    A  $end
$var wire      1 :    B  $end
$var wire      1 C!   int_fwire_0  $end
$upscope $end


$scope module g272__1309 $end
$var wire      1 =    Y  $end
$var wire      1 8    A  $end
$var wire      1 ;    B  $end
$var wire      1 D!   int_fwire_0  $end
$upscope $end


$scope module g269__6877 $end
$var wire      1 <    Y  $end
$var wire      1 j    A  $end
$var wire      1 ;    B  $end
$var wire      1 E!   int_fwire_0  $end
$upscope $end


$scope module g273__2900 $end
$var wire      1 ?    Y  $end
$var wire      1 j    A  $end
$var wire      1 ;    B  $end
$var wire      1 F!   int_fwire_0  $end
$upscope $end


$scope module g275__2391 $end
$var wire      1 :    Y  $end
$var wire      1 7    A  $end
$var wire      1 1    B  $end
$var wire      1 G!   int_fwire_0  $end
$upscope $end


$scope module g276__7675 $end
$var wire      1 9    Y  $end
$var wire      1 5    A  $end
$var wire      1 0    B  $end
$var wire      1 H!   int_fwire_0  $end
$upscope $end


$scope module g274__7118 $end
$var wire      1 8    Y  $end
$var wire      1 i    A  $end
$var wire      1 7    B  $end
$var wire      1 I!   int_fwire_0  $end
$upscope $end


$scope module g277__8757 $end
$var wire      1 ;    Y  $end
$var wire      1 )    A  $end
$var wire      1 6    B  $end
$var wire      1 J!   int_fwire_0  $end
$upscope $end


$scope module g278 $end
$var wire      1 7    Y  $end
$var wire      1 6    A  $end
$upscope $end


$scope module g281__1786 $end
$var wire      1 5    Y  $end
$var wire      1 [    A  $end
$var wire      1 +    B  $end
$var wire      1 K!   int_fwire_0  $end
$upscope $end


$scope module g284__5953 $end
$var wire      1 4    Y  $end
$var wire      1 f    A  $end
$var wire      1 k    B  $end
$var wire      1 L!   int_fwire_0  $end
$upscope $end


$scope module g282__5703 $end
$var wire      1 3    Y  $end
$var wire      1 !    A  $end
$var wire      1 j    B  $end
$var wire      1 M!   int_fwire_0  $end
$upscope $end


$scope module g280__7114 $end
$var wire      1 2    Y  $end
$var wire      1 !    A  $end
$var wire      1 m    B  $end
$var wire      1 N!   int_fwire_0  $end
$upscope $end


$scope module g285__5266 $end
$var wire      1 1    Y  $end
$var wire      1 g    A  $end
$var wire      1 h    B  $end
$var wire      1 O!   int_fwire_0  $end
$upscope $end


$scope module g283__2250 $end
$var wire      1 6    Y  $end
$var wire      1 h    A  $end
$var wire      1 g    B  $end
$var wire      1 P!   int_fwire_0  $end
$upscope $end


$scope module g289__6083 $end
$var wire      1 0    Y  $end
$var wire      1 !    A  $end
$var wire      1 g    B  $end
$var wire      1 Q!   int_fwire_0  $end
$upscope $end


$scope module g288__2703 $end
$var wire      1 /    Y  $end
$var wire      1 !    A  $end
$var wire      1 h    B  $end
$var wire      1 R!   int_fwire_0  $end
$upscope $end


$scope module g286__5795 $end
$var wire      1 .    Y  $end
$var wire      1 f    A  $end
$var wire      1 i    B  $end
$var wire      1 S!   int_fwire_0  $end
$upscope $end


$scope module g287__7344 $end
$var wire      1 -    Y  $end
$var wire      1 !    A  $end
$var wire      1 l    B  $end
$var wire      1 T!   int_fwire_0  $end
$upscope $end


$scope module g279__1840 $end
$var wire      1 ,    Y  $end
$var wire      1 !    A  $end
$var wire      1 n    B  $end
$var wire      1 U!   int_fwire_0  $end
$upscope $end


$scope module g298 $end
$var wire      1 [    Y  $end
$var wire      1 !    A  $end
$upscope $end


$scope module drc_bufs315 $end
$var wire      1 f    Y  $end
$var wire      1 !    A  $end
$upscope $end

$upscope $end

$upscope $end

$enddefinitions $end
$dumpvars
0!
0"
0#
x$
x%
x&
x'
x(
x)
x*
x+
x,
x-
x.
x/
x0
x1
x2
x3
x4
05
x6
x7
x8
x9
x:
x;
x<
x=
0>
x?
x@
xA
xB
xC
0D
xE
xF
xG
xH
0I
xJ
xK
xL
xM
xN
xO
xP
xQ
0R
xS
xT
xU
xV
xW
xX
xY
0Z
1[
0\
x]
x^
x_
0`
xa
xb
xc
xd
xe
0f
xg
xh
xi
xj
xk
xl
xm
xn
xo
xp
xq
xr
xs
xt
xu
xv
xw
xx
xy
1z
x{
x|
x}
x~
x!!
1"!
x#!
x$!
1%!
x&!
x'!
x(!
x)!
x*!
x+!
x,!
1-!
x.!
x/!
x0!
x1!
x2!
x3!
x4!
x5!
x6!
x7!
18!
x9!
x:!
x;!
1<!
x=!
x>!
x?!
x@!
xA!
xB!
1C!
xD!
xE!
xF!
xG!
xH!
xI!
xJ!
1K!
xL!
xM!
xN!
xO!
xP!
xQ!
xR!
xS!
xT!
xU!
$end
#10000
1"
#20000
0"
#24000
1#
1B!
16!
10!
1'!
1}
1x
1t
1q
0e
0d
0b
0_
0X
0O
0K
0@
#30000
1"
0?!
1@!
02!
13!
0*!
1+!
0#!
1$!
0{
1|
0v
1w
0r
1s
0o
1p
1n
0$
1m
0%
1l
0&
1k
0'
1j
0(
1i
0)
1h
0*
1g
0+
1Q!
1O!
1P!
1R!
0J!
1S!
1F!
1M!
0A!
1L!
1:!
1T!
04!
1N!
1)!
1U!
0,
0V
02
1T
0-
0H
04
1F
03
0?
0.
1;
0/
06
01
00
0H!
0G!
0=!
1E!
07!
0.!
19!
0&!
0!!
1,!
0y
0u
1c
1a
0U
1]
1Y
0G
1Q
1J
0<
1C
1:
19
17
1A
1M
0S
1/!
1;!
1I!
0>!
01!
0~
1^
1N
1B
08
0E
0P
0(!
05!
0D!
1=
1L
1W
#40000
0"
#44000
0#
#50000
1"
#60000
0"
#64000
1!
0[
1f
0K!
15
1H!
09
0B!
1@
#70000
1"
1?!
0@!
0g
1+
1K!
0O!
11
05
0H!
1G!
0:
19
1B!
0C!
1>
0@
1=!
0C
06!
1K
#80000
0"
#90000
1"
0?!
1@!
12!
03!
0h
1*
1g
0+
0K!
15
1H!
09
0B!
1@
#100000
0"
#110000
1"
1?!
0@!
0g
1+
1K!
0P!
16
05
0H!
19
07
0G!
0I!
1B!
0@
18
1:
1C!
1D!
0=
0>
0=!
0<!
1D
1C
16!
17!
0J
0K
00!
1O
#120000
0"
#130000
1"
0?!
1@!
02!
13!
1*!
0+!
0i
1)
1h
0*
1g
0+
0K!
1O!
1P!
1J!
0;
06
01
15
1H!
0J!
0E!
0D!
1=
1<
1;
09
17
0B!
1E!
1D!
1>!
1<!
0D
0B
0=
0<
1@
0>!
0<!
08!
07!
1J
1I
1D
1B
18!
17!
1.!
10!
0O
0Q
0J
0I
0.!
00!
0'!
1X
1O
1Q
1'!
0X
#140000
0"
#150000
1"
1?!
0@!
0g
1+
1K!
0O!
11
05
0H!
1G!
0:
19
1B!
0C!
1>
0@
1=!
0C
06!
1K
#160000
0"
#170000
1"
0?!
1@!
12!
03!
0h
1*
1g
0+
0K!
15
1H!
09
0B!
1@
#180000
0"
#190000
1"
1?!
0@!
0g
1+
1K!
0P!
16
05
0H!
1J!
0;
19
07
0G!
1B!
0E!
0D!
1=
1<
0@
1:
1C!
1>!
1<!
0D
0B
0>
0=!
08!
07!
1J
1I
1C
16!
1.!
10!
0O
0Q
0K
0'!
1X
#200000
0"
#210000
1"
0?!
1@!
02!
13!
0*!
1+!
1#!
0$!
0j
1(
1i
0)
1h
0*
1g
0+
0K!
1O!
1P!
0J!
0F!
1?
1;
06
01
15
1H!
1D!
1F!
0?
0=
09
17
0A
0>!
0;!
1I!
0B!
0<!
1D
1@
08
1E
1B
1A
1>!
1;!
18!
15!
0D!
17!
0J
1=
0L
0I
0E
0B
08!
05!
0.!
0-!
1<!
00!
1O
0D
1R
1Q
1L
1I
1.!
1-!
1'!
1&!
07!
1J
0Y
0X
0R
0Q
0'!
0&!
0}
10!
0O
1_
1Y
1X
1}
0_
#220000
0"
#230000
1"
1?!
0@!
0g
1+
1K!
0O!
11
05
0H!
1G!
0:
19
1B!
0C!
1>
0@
1=!
0C
06!
1K
#240000
0"
#250000
1"
0?!
1@!
12!
03!
0h
1*
1g
0+
0K!
15
1H!
09
0B!
1@
#260000
0"
#270000
1"
1?!
0@!
0g
1+
1K!
0P!
16
05
0H!
19
07
0G!
0I!
1B!
0@
18
1:
1C!
1D!
0=
0>
0=!
0<!
1D
1C
16!
17!
0J
0K
00!
1O
#280000
0"
#290000
1"
0?!
1@!
02!
13!
1*!
0+!
0i
1)
1h
0*
1g
0+
0K!
1O!
1P!
1J!
0;
06
01
15
1H!
0J!
0D!
0F!
1?
1=
1;
09
17
0B!
1D!
1F!
1<!
0D
0?
0=
1@
0A
0>!
0;!
0<!
07!
1J
1D
1E
1B
1A
1>!
1;!
18!
15!
17!
10!
0O
0J
0L
0I
0E
0B
08!
05!
0.!
0-!
00!
1O
1R
1Q
1L
1I
1.!
1-!
1'!
1&!
0Y
0X
0R
0Q
0'!
0&!
0}
1_
1Y
1X
1}
0_
#300000
0"
#310000
1"
1?!
0@!
0g
1+
1K!
0O!
11
05
0H!
1G!
0:
19
1B!
0C!
1>
0@
1=!
0C
06!
1K
#320000
0"
#330000
1"
0?!
1@!
12!
03!
0h
1*
1g
0+
0K!
15
1H!
09
0B!
1@
#340000
0"
#350000
1"
1?!
0@!
0g
1+
1K!
0P!
16
05
0H!
1J!
0;
19
07
0G!
1B!
0D!
0F!
1?
1=
0@
1:
1C!
1<!
0D
0>
0A
0>!
0;!
0=!
07!
1J
1C
1E
1B
18!
15!
16!
10!
0O
0K
0L
0I
0.!
0-!
1R
1Q
1'!
1&!
0Y
0X
0}
1_
#360000
0"
#370000
1"
0?!
1@!
02!
13!
0*!
1+!
0#!
1$!
1{
0|
0k
1'
1j
0(
1i
0)
1h
0*
1g
0+
0K!
1O!
1P!
0J!
1F!
1A!
0F
0?
1;
06
01
15
1H!
1E!
1D!
0A!
09!
05!
1L
1G
1F
0=
0<
09
17
1A
1I!
0B!
0<!
19!
15!
11!
1-!
0R
0N
0L
0G
1D
1@
08
0D!
17!
01!
0-!
0%!
0&!
1Y
1Z
1R
1N
0J
1=
1<!
00!
1%!
1&!
1!!
1}
0_
0]
0Y
0Z
1O
0D
07!
0!!
0}
0x
1b
1_
1]
1J
10!
1x
0b
0O
#380000
0"
#390000
1"
1?!
0@!
0g
1+
1K!
0O!
11
05
0H!
1G!
0:
19
1B!
0C!
1>
0@
1=!
0C
06!
1K
#400000
0"
#410000
1"
0?!
1@!
12!
03!
0h
1*
1g
0+
0K!
15
1H!
09
0B!
1@
#420000
0"
#430000
1"
1?!
0@!
0g
1+
1K!
0P!
16
05
0H!
19
07
0G!
0I!
1B!
0@
18
1:
1C!
1D!
0=
0>
0=!
0<!
1D
1C
16!
17!
0J
0K
00!
1O
#440000
0"
#450000
1"
0?!
1@!
02!
13!
1*!
0+!
0i
1)
1h
0*
1g
0+
0K!
1O!
1P!
1J!
0;
06
01
15
1H!
0J!
0E!
0D!
1=
1<
1;
09
17
0B!
1E!
1D!
1>!
1<!
0D
0B
0=
0<
1@
0>!
0<!
08!
07!
1J
1I
1D
1B
18!
17!
1.!
10!
0O
0Q
0J
0I
0.!
00!
0'!
1X
1O
1Q
1'!
0X
#460000
0"
#470000
1"
1?!
0@!
0g
1+
1K!
0O!
11
05
0H!
1G!
0:
19
1B!
0C!
1>
0@
1=!
0C
06!
1K
#480000
0"
#490000
1"
0?!
1@!
12!
03!
0h
1*
1g
0+
0K!
15
1H!
09
0B!
1@
#500000
0"
#510000
1"
1?!
0@!
0g
1+
1K!
0P!
16
05
0H!
1J!
0;
19
07
0G!
1B!
0E!
0D!
1=
1<
0@
1:
1C!
1>!
1<!
0D
0B
0>
0=!
08!
07!
1J
1I
1C
16!
1.!
10!
0O
0Q
0K
0'!
1X
#520000
0"
#530000
1"
0?!
1@!
02!
13!
0*!
1+!
1#!
0$!
0j
1(
1i
0)
1h
0*
1g
0+
0K!
1O!
1P!
0J!
0F!
1?
1;
06
01
15
1H!
1D!
1F!
1A!
0F
0?
0=
09
17
0A
0>!
1I!
0B!
0<!
0A!
09!
05!
1L
1G
1F
1D
1@
08
1B
1A
1>!
18!
0D!
17!
19!
15!
11!
1-!
0R
0N
0L
0G
0J
1=
0I
0B
08!
0.!
1<!
00!
01!
0-!
0%!
0&!
1Y
1Z
1R
1N
1O
0D
1Q
1I
1.!
1'!
07!
1%!
1&!
1!!
1}
0_
0]
0Y
0Z
1J
0X
0Q
0'!
10!
0!!
0}
0x
1b
1_
1]
0O
1X
1x
0b
#540000
0"
#550000
1"
1?!
0@!
0g
1+
1K!
0O!
11
05
0H!
1G!
0:
19
1B!
0C!
1>
0@
1=!
0C
06!
1K
