sim_gate/dump.vcd
$date
    Nov 23, 2021  13:52:45
$end
$version
    TOOL:	xmsim(64)	18.03-s018
$end
$timescale
    1 ps
$end

$scope module counter_tb $end

$scope module counter1 $end
$var wire      1 !    enable  $end
$var wire      1 "    clk  $end
$var wire      1 #    reset  $end
$var wire      1 $    out [7] $end
$var wire      1 %    out [6] $end
$var wire      1 &    out [5] $end
$var wire      1 '    out [4] $end
$var wire      1 (    out [3] $end
$var wire      1 )    out [2] $end
$var wire      1 *    out [1] $end
$var wire      1 +    out [0] $end
$var wire      1 ,    n_3  $end
$var wire      1 -    n_4  $end
$var wire      1 .    n_5  $end
$var wire      1 /    n_6  $end
$var wire      1 0    n_7  $end
$var wire      1 1    n_8  $end
$var wire      1 2    n_9  $end
$var wire      1 3    n_10  $end
$var wire      1 4    n_11  $end
$var wire      1 5    n_13  $end
$var wire      1 6    n_14  $end
$var wire      1 7    n_16  $end
$var wire      1 8    n_17  $end
$var wire      1 9    n_18  $end
$var wire      1 :    n_19  $end
$var wire      1 ;    n_20  $end
$var wire      1 <    n_21  $end
$var wire      1 =    n_22  $end
$var wire      1 >    n_23  $end
$var wire      1 ?    n_24  $end
$var wire      1 @    n_25  $end
$var wire      1 A    n_27  $end
$var wire      1 B    n_28  $end
$var wire      1 C    n_29  $end
$var wire      1 D    n_30  $end
$var wire      1 E    n_31  $end
$var wire      1 F    n_32  $end
$var wire      1 G    n_33  $end
$var wire      1 H    n_34  $end
$var wire      1 I    n_35  $end
$var wire      1 J    n_36  $end
$var wire      1 K    n_37  $end
$var wire      1 L    n_38  $end
$var wire      1 M    n_40  $end
$var wire      1 N    n_41  $end
$var wire      1 O    n_42  $end
$var wire      1 P    n_43  $end
$var wire      1 Q    n_44  $end
$var wire      1 R    n_45  $end
$var wire      1 S    n_46  $end
$var wire      1 T    n_47  $end
$var wire      1 U    n_49  $end
$var wire      1 V    n_50  $end
$var wire      1 W    n_51  $end
$var wire      1 X    n_52  $end
$var wire      1 Y    n_53  $end
$var wire      1 Z    n_54  $end
$var wire      1 [    n_55  $end
$var wire      1 \    n_56  $end
$var wire      1 ]    n_57  $end
$var wire      1 ^    n_58  $end
$var wire      1 _    n_59  $end
$var wire      1 `    n_60  $end
$var wire      1 a    n_61  $end
$var wire      1 b    n_62  $end
$var wire      1 c    n_63  $end
$var wire      1 d    n_64  $end
$var wire      1 e    n_65  $end
$var wire      1 f    n_79  $end
$var wire      1 g    out[0]_58  $end
$var wire      1 h    out[1]_59  $end
$var wire      1 i    out[2]_60  $end
$var wire      1 j    out[3]_61  $end
$var wire      1 k    out[4]_62  $end
$var wire      1 l    out[5]_63  $end
$var wire      1 m    out[6]_64  $end
$var wire      1 n    out[7]_65  $end

$scope module \out_reg[7]  $end
$var wire      1 $    Q  $end
$var wire      1 n    QN  $end
$var wire      1 "    CK  $end
$var wire      1 e    D  $end
$var reg       1 o    notifier $end
$var wire      1 p    delayed_CK  $end
$var wire      1 q    delayed_D  $end
$var wire      1 r    int_fwire_IQ  $end
$var wire      1 s    int_fwire_IQN  $end
$var wire      1 t    xcr_0  $end
$upscope $end


$scope module g227__8780 $end
$var wire      1 e    Y  $end
$var wire      1 #    A  $end
$var wire      1 c    B  $end
$var wire      1 u    A__bar  $end
$var wire      1 v    B__bar  $end
$upscope $end


$scope module \out_reg[6]  $end
$var wire      1 %    Q  $end
$var wire      1 m    QN  $end
$var wire      1 "    CK  $end
$var wire      1 d    D  $end
$var reg       1 w    notifier $end
$var wire      1 p    delayed_CK  $end
$var wire      1 x    delayed_D  $end
$var wire      1 y    int_fwire_IQ  $end
$var wire      1 z    int_fwire_IQN  $end
$var wire      1 {    xcr_0  $end
$upscope $end


$scope module g229__4296 $end
$var wire      1 d    Y  $end
$var wire      1 #    A  $end
$var wire      1 a    B  $end
$var wire      1 |    A__bar  $end
$var wire      1 }    B__bar  $end
$upscope $end


$scope module g228__3772 $end
$var wire      1 c    Y  $end
$var wire      1 ,    A  $end
$var wire      1 `    B  $end
$var wire      1 ~    A__bar  $end
$var wire      1 !!   B__bar  $end
$upscope $end


$scope module \out_reg[5]  $end
$var wire      1 &    Q  $end
$var wire      1 l    QN  $end
$var wire      1 "    CK  $end
$var wire      1 b    D  $end
$var reg       1 "!   notifier $end
$var wire      1 p    delayed_CK  $end
$var wire      1 #!   delayed_D  $end
$var wire      1 $!   int_fwire_IQ  $end
$var wire      1 %!   int_fwire_IQN  $end
$var wire      1 &!   xcr_0  $end
$upscope $end


$scope module g233__1474 $end
$var wire      1 b    Y  $end
$var wire      1 #    A  $end
$var wire      1 ]    B  $end
$var wire      1 '!   A__bar  $end
$var wire      1 (!   B__bar  $end
$upscope $end


$scope module g234__4547 $end
$var wire      1 a    Y  $end
$var wire      1 2    A  $end
$var wire      1 \    B  $end
$var wire      1 )!   A__bar  $end
$var wire      1 *!   B__bar  $end
$upscope $end


$scope module g231__9682 $end
$var wire      1 `    Y  $end
$var wire      1 [    A  $end
$var wire      1 ^    B  $end
$var wire      1 +!   A__bar  $end
$var wire      1 ,!   B__bar  $end
$upscope $end


$scope module \out_reg[4]  $end
$var wire      1 '    Q  $end
$var wire      1 k    QN  $end
$var wire      1 "    CK  $end
$var wire      1 _    D  $end
$var reg       1 -!   notifier $end
$var wire      1 p    delayed_CK  $end
$var wire      1 .!   delayed_D  $end
$var wire      1 /!   int_fwire_IQ  $end
$var wire      1 0!   int_fwire_IQN  $end
$var wire      1 1!   xcr_0  $end
$upscope $end


$scope module g235__2683 $end
$var wire      1 _    Y  $end
$var wire      1 #    A  $end
$var wire      1 Y    B  $end
$var wire      1 2!   A__bar  $end
$var wire      1 3!   B__bar  $end
$upscope $end


$scope module g236__1309 $end
$var wire      1 ^    Y  $end
$var wire      1 V    A  $end
$var wire      1 U    B  $end
$var wire      1 4!   A__bar  $end
$var wire      1 5!   B__bar  $end
$upscope $end


$scope module g237__6877 $end
$var wire      1 ]    Y  $end
$var wire      1 -    A  $end
$var wire      1 Z    B  $end
$var wire      1 6!   A__bar  $end
$var wire      1 7!   B__bar  $end
$upscope $end


$scope module g238__2900 $end
$var wire      1 \    Y  $end
$var wire      1 [    A  $end
$var wire      1 W    B  $end
$var wire      1 8!   A__bar  $end
$var wire      1 9!   B__bar  $end
$upscope $end


$scope module \out_reg[3]  $end
$var wire      1 (    Q  $end
$var wire      1 j    QN  $end
$var wire      1 "    CK  $end
$var wire      1 X    D  $end
$var reg       1 :!   notifier $end
$var wire      1 p    delayed_CK  $end
$var wire      1 ;!   delayed_D  $end
$var wire      1 <!   int_fwire_IQ  $end
$var wire      1 =!   int_fwire_IQN  $end
$var wire      1 >!   xcr_0  $end
$upscope $end


$scope module g243__2391 $end
$var wire      1 Z    Y  $end
$var wire      1 [    A  $end
$var wire      1 N    B  $end
$var wire      1 ?!   A__bar  $end
$var wire      1 @!   B__bar  $end
$upscope $end


$scope module g244__7675 $end
$var wire      1 Y    Y  $end
$var wire      1 4    A  $end
$var wire      1 R    B  $end
$var wire      1 A!   A__bar  $end
$var wire      1 B!   B__bar  $end
$upscope $end


$scope module g245__7118 $end
$var wire      1 X    Y  $end
$var wire      1 #    A  $end
$var wire      1 Q    B  $end
$var wire      1 C!   A__bar  $end
$var wire      1 D!   B__bar  $end
$upscope $end


$scope module g246__8757 $end
$var wire      1 W    Y  $end
$var wire      1 P    A  $end
$var wire      1 T    B  $end
$var wire      1 E!   A__bar  $end
$var wire      1 F!   B__bar  $end
$upscope $end


$scope module g240__1786 $end
$var wire      1 V    Y  $end
$var wire      1 n    A  $end
$var wire      1 S    B  $end
$var wire      1 G!   A__bar  $end
$var wire      1 H!   B__bar  $end
$upscope $end


$scope module \out_reg[2]  $end
$var wire      1 )    Q  $end
$var wire      1 i    QN  $end
$var wire      1 "    CK  $end
$var wire      1 O    D  $end
$var reg       1 I!   notifier $end
$var wire      1 p    delayed_CK  $end
$var wire      1 J!   delayed_D  $end
$var wire      1 K!   int_fwire_IQ  $end
$var wire      1 L!   int_fwire_IQN  $end
$var wire      1 M!   xcr_0  $end
$upscope $end


$scope module g241__5953 $end
$var wire      1 U    Y  $end
$var wire      1 $    A  $end
$var wire      1 T    B  $end
$var wire      1 N!   A__bar  $end
$var wire      1 O!   B__bar  $end
$upscope $end


$scope module g247 $end
$var wire      1 S    Y  $end
$var wire      1 T    A  $end
$upscope $end


$scope module g248__5703 $end
$var wire      1 R    Y  $end
$var wire      1 [    A  $end
$var wire      1 L    B  $end
$var wire      1 P!   A__bar  $end
$var wire      1 Q!   B__bar  $end
$upscope $end


$scope module g251__7114 $end
$var wire      1 Q    Y  $end
$var wire      1 3    A  $end
$var wire      1 I    B  $end
$var wire      1 R!   A__bar  $end
$var wire      1 S!   B__bar  $end
$upscope $end


$scope module g254__5266 $end
$var wire      1 P    Y  $end
$var wire      1 m    A  $end
$var wire      1 M    B  $end
$var wire      1 T!   A__bar  $end
$var wire      1 U!   B__bar  $end
$upscope $end


$scope module g253__2250 $end
$var wire      1 O    Y  $end
$var wire      1 #    A  $end
$var wire      1 J    B  $end
$var wire      1 V!   A__bar  $end
$var wire      1 W!   B__bar  $end
$upscope $end


$scope module g252__6083 $end
$var wire      1 N    Y  $end
$var wire      1 G    A  $end
$var wire      1 M    B  $end
$var wire      1 X!   A__bar  $end
$var wire      1 Y!   B__bar  $end
$upscope $end


$scope module \out_reg[1]  $end
$var wire      1 *    Q  $end
$var wire      1 h    QN  $end
$var wire      1 "    CK  $end
$var wire      1 K    D  $end
$var reg       1 Z!   notifier $end
$var wire      1 p    delayed_CK  $end
$var wire      1 [!   delayed_D  $end
$var wire      1 \!   int_fwire_IQ  $end
$var wire      1 ]!   int_fwire_IQN  $end
$var wire      1 ^!   xcr_0  $end
$upscope $end


$scope module g249__2703 $end
$var wire      1 T    Y  $end
$var wire      1 %    A  $end
$var wire      1 H    B  $end
$var wire      1 _!   A__bar  $end
$var wire      1 `!   B__bar  $end
$upscope $end


$scope module g256__5795 $end
$var wire      1 L    Y  $end
$var wire      1 E    A  $end
$var wire      1 F    B  $end
$var wire      1 a!   A__bar  $end
$var wire      1 b!   B__bar  $end
$upscope $end


$scope module g257__7344 $end
$var wire      1 K    Y  $end
$var wire      1 #    A  $end
$var wire      1 C    B  $end
$var wire      1 c!   A__bar  $end
$var wire      1 d!   B__bar  $end
$upscope $end


$scope module g259__1840 $end
$var wire      1 J    Y  $end
$var wire      1 .    A  $end
$var wire      1 D    B  $end
$var wire      1 e!   A__bar  $end
$var wire      1 f!   B__bar  $end
$upscope $end


$scope module g255__5019 $end
$var wire      1 I    Y  $end
$var wire      1 [    A  $end
$var wire      1 B    B  $end
$var wire      1 g!   A__bar  $end
$var wire      1 h!   B__bar  $end
$upscope $end


$scope module g258 $end
$var wire      1 M    Y  $end
$var wire      1 H    A  $end
$upscope $end


$scope module g260__1857 $end
$var wire      1 G    Y  $end
$var wire      1 l    A  $end
$var wire      1 F    B  $end
$var wire      1 i!   A__bar  $end
$var wire      1 j!   B__bar  $end
$upscope $end


$scope module g261__9906 $end
$var wire      1 H    Y  $end
$var wire      1 l    A  $end
$var wire      1 F    B  $end
$var wire      1 k!   A__bar  $end
$var wire      1 l!   B__bar  $end
$upscope $end


$scope module g265__8780 $end
$var wire      1 E    Y  $end
$var wire      1 k    A  $end
$var wire      1 A    B  $end
$var wire      1 m!   A__bar  $end
$var wire      1 n!   B__bar  $end
$upscope $end


$scope module g266__4296 $end
$var wire      1 D    Y  $end
$var wire      1 [    A  $end
$var wire      1 =    B  $end
$var wire      1 o!   A__bar  $end
$var wire      1 p!   B__bar  $end
$upscope $end


$scope module g262__3772 $end
$var wire      1 C    Y  $end
$var wire      1 /    A  $end
$var wire      1 >    B  $end
$var wire      1 q!   A__bar  $end
$var wire      1 r!   B__bar  $end
$upscope $end


$scope module g263__1474 $end
$var wire      1 B    Y  $end
$var wire      1 <    A  $end
$var wire      1 A    B  $end
$var wire      1 s!   A__bar  $end
$var wire      1 t!   B__bar  $end
$upscope $end


$scope module \out_reg[0]  $end
$var wire      1 +    Q  $end
$var wire      1 g    QN  $end
$var wire      1 "    CK  $end
$var wire      1 @    D  $end
$var reg       1 u!   notifier $end
$var wire      1 p    delayed_CK  $end
$var wire      1 v!   delayed_D  $end
$var wire      1 w!   int_fwire_IQ  $end
$var wire      1 x!   int_fwire_IQN  $end
$var wire      1 y!   xcr_0  $end
$upscope $end


$scope module g267__4547 $end
$var wire      1 F    Y  $end
$var wire      1 '    A  $end
$var wire      1 ?    B  $end
$var wire      1 z!   A__bar  $end
$var wire      1 {!   B__bar  $end
$upscope $end


$scope module g268__9682 $end
$var wire      1 @    Y  $end
$var wire      1 #    A  $end
$var wire      1 9    B  $end
$var wire      1 |!   A__bar  $end
$var wire      1 }!   B__bar  $end
$upscope $end


$scope module g270 $end
$var wire      1 A    Y  $end
$var wire      1 ?    A  $end
$upscope $end


$scope module g271__2683 $end
$var wire      1 >    Y  $end
$var wire      1 [    A  $end
$var wire      1 :    B  $end
$var wire      1 ~!   A__bar  $end
$var wire      1 !"   B__bar  $end
$upscope $end


$scope module g272__1309 $end
$var wire      1 =    Y  $end
$var wire      1 8    A  $end
$var wire      1 ;    B  $end
$var wire      1 ""   A__bar  $end
$var wire      1 #"   B__bar  $end
$upscope $end


$scope module g269__6877 $end
$var wire      1 <    Y  $end
$var wire      1 j    A  $end
$var wire      1 ;    B  $end
$var wire      1 $"   A__bar  $end
$var wire      1 %"   B__bar  $end
$upscope $end


$scope module g273__2900 $end
$var wire      1 ?    Y  $end
$var wire      1 j    A  $end
$var wire      1 ;    B  $end
$var wire      1 &"   A__bar  $end
$var wire      1 '"   B__bar  $end
$upscope $end


$scope module g275__2391 $end
$var wire      1 :    Y  $end
$var wire      1 7    A  $end
$var wire      1 1    B  $end
$var wire      1 ("   A__bar  $end
$var wire      1 )"   B__bar  $end
$upscope $end


$scope module g276__7675 $end
$var wire      1 9    Y  $end
$var wire      1 5    A  $end
$var wire      1 0    B  $end
$var wire      1 *"   A__bar  $end
$var wire      1 +"   B__bar  $end
$upscope $end


$scope module g274__7118 $end
$var wire      1 8    Y  $end
$var wire      1 i    A  $end
$var wire      1 7    B  $end
$var wire      1 ,"   A__bar  $end
$var wire      1 -"   B__bar  $end
$upscope $end


$scope module g277__8757 $end
$var wire      1 ;    Y  $end
$var wire      1 )    A  $end
$var wire      1 6    B  $end
$var wire      1 ."   A__bar  $end
$var wire      1 /"   B__bar  $end
$upscope $end


$scope module g278 $end
$var wire      1 7    Y  $end
$var wire      1 6    A  $end
$upscope $end


$scope module g281__1786 $end
$var wire      1 5    Y  $end
$var wire      1 [    A  $end
$var wire      1 +    B  $end
$var wire      1 0"   A__bar  $end
$var wire      1 1"   B__bar  $end
$upscope $end


$scope module g284__5953 $end
$var wire      1 4    Y  $end
$var wire      1 f    A  $end
$var wire      1 k    B  $end
$var wire      1 2"   A__bar  $end
$var wire      1 3"   B__bar  $end
$upscope $end


$scope module g282__5703 $end
$var wire      1 3    Y  $end
$var wire      1 !    A  $end
$var wire      1 j    B  $end
$var wire      1 4"   A__bar  $end
$var wire      1 5"   B__bar  $end
$upscope $end


$scope module g280__7114 $end
$var wire      1 2    Y  $end
$var wire      1 !    A  $end
$var wire      1 m    B  $end
$var wire      1 6"   A__bar  $end
$var wire      1 7"   B__bar  $end
$upscope $end


$scope module g285__5266 $end
$var wire      1 1    Y  $end
$var wire      1 g    A  $end
$var wire      1 h    B  $end
$var wire      1 8"   A__bar  $end
$var wire      1 9"   B__bar  $end
$upscope $end


$scope module g283__2250 $end
$var wire      1 6    Y  $end
$var wire      1 h    A  $end
$var wire      1 g    B  $end
$var wire      1 :"   A__bar  $end
$var wire      1 ;"   B__bar  $end
$upscope $end


$scope module g289__6083 $end
$var wire      1 0    Y  $end
$var wire      1 !    A  $end
$var wire      1 g    B  $end
$var wire      1 <"   A__bar  $end
$var wire      1 ="   B__bar  $end
$upscope $end


$scope module g288__2703 $end
$var wire      1 /    Y  $end
$var wire      1 !    A  $end
$var wire      1 h    B  $end
$var wire      1 >"   A__bar  $end
$var wire      1 ?"   B__bar  $end
$upscope $end


$scope module g286__5795 $end
$var wire      1 .    Y  $end
$var wire      1 f    A  $end
$var wire      1 i    B  $end
$var wire      1 @"   A__bar  $end
$var wire      1 A"   B__bar  $end
$upscope $end


$scope module g287__7344 $end
$var wire      1 -    Y  $end
$var wire      1 !    A  $end
$var wire      1 l    B  $end
$var wire      1 B"   A__bar  $end
$var wire      1 C"   B__bar  $end
$upscope $end


$scope module g279__1840 $end
$var wire      1 ,    Y  $end
$var wire      1 !    A  $end
$var wire      1 n    B  $end
$var wire      1 D"   A__bar  $end
$var wire      1 E"   B__bar  $end
$upscope $end


$scope module g298 $end
$var wire      1 [    Y  $end
$var wire      1 !    A  $end
$upscope $end


$scope module drc_bufs315 $end
$var wire      1 f    Y  $end
$var wire      1 !    A  $end
$upscope $end

$upscope $end

$upscope $end

$enddefinitions $end
$dumpvars
0!
0"
0#
x$
x%
x&
x'
x(
x)
x*
x+
x,
x-
x.
x/
x0
x1
x2
x3
x4
x5
x6
x7
x8
x9
x:
x;
x<
x=
x>
x?
x@
xA
xB
xC
xD
xE
xF
xG
xH
xI
xJ
xK
xL
xM
xN
xO
xP
xQ
xR
xS
xT
xU
xV
xW
xX
xY
xZ
x[
x\
x]
x^
x_
x`
xa
xb
xc
xd
xe
xf
xg
xh
xi
xj
xk
xl
xm
xn
xo
0p
xq
xr
xs
xt
1u
xv
xw
xx
xy
xz
x{
1|
x}
x~
x!!
x"!
x#!
x$!
x%!
x&!
1'!
x(!
x)!
x*!
x+!
x,!
x-!
x.!
x/!
x0!
x1!
12!
x3!
x4!
x5!
x6!
x7!
x8!
x9!
x:!
x;!
x<!
x=!
x>!
x?!
x@!
xA!
xB!
1C!
xD!
xE!
xF!
xG!
xH!
xI!
xJ!
xK!
xL!
xM!
xN!
xO!
xP!
xQ!
xR!
xS!
xT!
xU!
1V!
xW!
xX!
xY!
xZ!
x[!
x\!
x]!
x^!
x_!
x`!
xa!
xb!
1c!
xd!
xe!
xf!
xg!
xh!
xi!
xj!
xk!
xl!
xm!
xn!
xo!
xp!
xq!
xr!
xs!
xt!
xu!
xv!
xw!
xx!
xy!
xz!
x{!
1|!
x}!
x~!
x!"
x""
x#"
x$"
x%"
x&"
x'"
x("
x)"
x*"
x+"
x,"
x-"
x."
x/"
x0"
x1"
x2"
x3"
14"
x5"
16"
x7"
x8"
x9"
x:"
x;"
1<"
x="
1>"
x?"
x@"
xA"
1B"
xC"
1D"
xE"
$end
#590
1[
00"
0~!
0o!
0g!
0P!
0?!
08!
0+!
#920
0f
1@"
12"
#1520
0`
0\
0Z
0R
0I
0D
0>
05
1*"
1r!
1f!
1S!
1B!
17!
1*!
1!!
#10000
1"
1p
#20000
0"
0p
#24000
1#
0|!
0c!
0V!
0C!
02!
0'!
0|
0u
#24930
0e
0d
0b
0_
0X
0O
0K
0@
#25231
0v!
0[!
0J!
0;!
0.!
0#!
0x
0q
#30000
1"
1p
0w!
0\!
0K!
0<!
0/!
0$!
0y
0r
1s
1z
1%!
10!
1=!
1L!
1]!
1x!
#32460
0$
0%
0&
0'
0(
0)
0*
0+
11"
1."
1z!
1_!
1N!
#32550
1g
1h
1i
1j
1k
1l
1m
1n
0G!
0E"
0T!
07"
0i!
0k!
0C"
0m!
03"
0$"
0&"
05"
0,"
0A"
0?"
09"
08"
0="
0;"
0:"
#33100
1T
1F
1;
0%"
0#"
0'"
0j!
0b!
0l!
0F!
0O!
#33360
06
00
0/
0.
03
04
0-
02
0,
1~
1)!
16!
1A!
1R!
1e!
1q!
1+"
1/"
#33480
0?
0H
0V
14!
1`!
1{!
#33750
01
1)"
#33910
0U
0S
1H!
15!
#33950
17
0("
0-"
#34070
1M
1A
0t!
0n!
0Y!
0U!
#34270
1C
1J
1Q
1Y
1]
1a
1c
0v
0}
0(!
03!
0D!
0W!
0d!
#34310
19
0}!
#34330
1:
0!"
#34410
0G
0<
1s!
1X!
#34860
1^
0,!
#35050
1N
1B
0h!
0@!
#35260
08
1""
#35380
0P
0E
1a!
1E!
#35900
1=
0p!
#36020
1W
1L
0Q!
09!
#40000
0"
0p
#44000
0#
1|!
1c!
1V!
1C!
12!
1'!
1|
1u
#50000
1"
1p
#60000
0"
0p
#64000
1!
0D"
0B"
0>"
0<"
06"
04"
#64810
0[
10"
1~!
1o!
1g!
1P!
1?!
18!
1+!
#64950
1f
0@"
02"
#65720
15
0*"
#66650
09
1}!
#67600
1@
#67901
1v!
#70000
1"
1p
1w!
0x!
#71850
1+
01"
#72200
0g
18"
1="
1;"
#72660
05
1*"
#72840
11
0)"
#73570
19
0}!
#74150
0:
1!"
#74380
0@
#74681
0v!
#75100
1>
0r!
#75910
0C
1d!
#76860
1K
#77161
1[!
#80000
0"
0p
#90000
1"
1p
0w!
1\!
0]!
1x!
#91850
1*
#92200
0h
19"
1:"
1?"
#92460
0+
11"
#92550
1g
08"
0="
0;"
#93410
15
0*"
#94340
09
1}!
#95290
1@
#95591
1v!
#100000
0"
0p
#110000
1"
1p
1w!
0x!
#111850
1+
01"
#112200
0g
18"
1="
1;"
#112660
05
1*"
#113150
16
0/"
#113570
19
0}!
#113960
07
1("
1-"
#114380
0@
#114540
18
0""
#114600
1:
0!"
#114681
0v!
#115410
0>
1r!
#115740
0=
1p!
#116360
1C
0d!
#116690
1D
0f!
#117170
0K
#117471
0[!
#117500
0J
1W!
#118450
1O
#118751
1J!
#120000
0"
0p
#130000
1"
1p
0w!
0\!
1K!
0L!
1]!
1x!
#131850
1)
0."
#132200
0i
1,"
1A"
#132460
0*
0+
11"
#132550
1g
1h
0?"
09"
08"
0="
0;"
0:"
#133050
0;
1%"
1#"
1'"
#133360
06
1/"
#133410
15
0*"
#133630
1=
1<
0s!
0p!
#133750
01
1)"
#133940
1;
0%"
0#"
0'"
#133950
17
0("
0-"
#134340
09
1}!
#134440
0D
1f!
#134830
0B
1h!
#135250
0=
0<
1s!
1p!
#135290
1@
#135390
1J
0W!
#135591
1v!
#135780
1I
0S!
#135890
1B
0h!
#136200
0O
1D
0f!
#136501
0J!
#136590
0Q
1D!
#136700
0I
1S!
#137010
0J
1W!
#137540
1X
#137650
1Q
0D!
#137841
1;!
#137960
1O
#138261
1J!
#138460
0X
#138761
0;!
#140000
0"
0p
#150000
1"
1p
1w!
0x!
#151850
1+
01"
#152200
0g
18"
1="
1;"
#152660
05
1*"
#152840
11
0)"
#153570
19
0}!
#154150
0:
1!"
#154380
0@
#154681
0v!
#155100
1>
0r!
#155910
0C
1d!
#156860
1K
#157161
1[!
#160000
0"
0p
#170000
1"
1p
0w!
1\!
0]!
1x!
#171850
1*
#172200
0h
19"
1:"
1?"
#172460
0+
11"
#172550
1g
08"
0="
0;"
#173410
15
0*"
#174340
09
1}!
#175290
1@
#175591
1v!
#180000
0"
0p
#190000
1"
1p
1w!
0x!
#191850
1+
01"
#192200
0g
18"
1="
1;"
#192660
05
1*"
#193150
16
0/"
#193570
19
0}!
#193960
07
1("
1-"
#194380
0@
#194460
0;
1%"
1#"
1'"
#194600
1:
0!"
#194681
0v!
#195040
1=
1<
0s!
0p!
#195410
0>
1r!
#195850
0D
1f!
#196240
0B
1h!
#196360
1C
0d!
#196800
1J
0W!
#197170
0K
#197190
1I
0S!
#197471
0[!
#197610
0O
#197911
0J!
#198000
0Q
1D!
#198950
1X
#199251
1;!
#200000
0"
0p
#210000
1"
1p
0w!
0\!
0K!
1<!
0=!
1L!
1]!
1x!
#211850
1(
#212200
0j
1$"
1&"
15"
#212460
0)
0*
0+
11"
1."
#212550
1g
1h
1i
0,"
0A"
0?"
09"
08"
0="
0;"
0:"
#213100
1;
0%"
0#"
0'"
#213360
06
1/"
#213410
15
0*"
#213750
01
1)"
#213950
17
0("
0-"
#214340
09
1}!
#214410
0=
1p!
#215260
08
1""
#215290
1@
#215360
1D
0f!
#215591
1v!
#215900
1=
0p!
#216170
0J
1W!
#216710
0D
1f!
#217120
1O
#217421
1J!
#217660
1J
0W!
#218470
0O
#218771
0J!
#220000
0"
0p
#230000
1"
1p
1w!
0x!
#231850
1+
01"
#232200
0g
18"
1="
1;"
#232660
05
1*"
#232840
11
0)"
#233570
19
0}!
#234150
0:
1!"
#234380
0@
#234681
0v!
#235100
1>
0r!
#235910
0C
1d!
#236860
1K
#237161
1[!
#240000
0"
0p
#250000
1"
1p
0w!
1\!
0]!
1x!
#251850
1*
#252200
0h
19"
1:"
1?"
#252460
0+
11"
#252550
1g
08"
0="
0;"
#253410
15
0*"
#254340
09
1}!
#255290
1@
#255591
1v!
#260000
0"
0p
#270000
1"
1p
1w!
0x!
#271850
1+
01"
#272200
0g
18"
1="
1;"
#272660
05
1*"
#273150
16
0/"
#273570
19
0}!
#273960
07
1("
1-"
#274380
0@
#274540
18
0""
#274600
1:
0!"
#274681
0v!
#275410
0>
1r!
#275740
0=
1p!
#276360
1C
0d!
#276690
1D
0f!
#277170
0K
#277471
0[!
#277500
0J
1W!
#278450
1O
#278751
1J!
#280000
0"
0p
#290000
1"
1p
0w!
0\!
1K!
0L!
1]!
1x!
#291850
1)
0."
#292200
0i
1,"
1A"
#292460
0*
0+
11"
#292550
1g
1h
0?"
09"
08"
0="
0;"
0:"
#293050
0;
1%"
1#"
1'"
#293360
06
1/"
#293410
15
0*"
#293630
1=
0p!
#293750
01
1)"
#293940
1;
0%"
0#"
0'"
#293950
17
0("
0-"
#294340
09
1}!
#294440
0D
1f!
#295250
0=
1p!
#295290
1@
#295390
1J
0W!
#295591
1v!
#296200
0O
1D
0f!
#296501
0J!
#297010
0J
1W!
#297960
1O
#298261
1J!
#300000
0"
0p
#310000
1"
1p
1w!
0x!
#311850
1+
01"
#312200
0g
18"
1="
1;"
#312660
05
1*"
#312840
11
0)"
#313570
19
0}!
#314150
0:
1!"
#314380
0@
#314681
0v!
#315100
1>
0r!
#315910
0C
1d!
#316860
1K
#317161
1[!
#320000
0"
0p
#330000
1"
1p
0w!
1\!
0]!
1x!
#331850
1*
#332200
0h
19"
1:"
1?"
#332460
0+
11"
#332550
1g
08"
0="
0;"
#333410
15
0*"
#334340
09
1}!
#335290
1@
#335591
1v!
#340000
0"
0p
#350000
1"
1p
1w!
0x!
#351850
1+
01"
#352200
0g
18"
1="
1;"
#352660
05
1*"
#353150
16
0/"
#353570
19
0}!
#353960
07
1("
1-"
#354380
0@
#354460
0;
1%"
1#"
1'"
#354600
1:
0!"
#354681
0v!
#355040
1=
0p!
#355410
0>
1?
0{!
1r!
#355850
0D
1f!
#356220
0A
1t!
1n!
#356360
1C
0d!
#356800
1E
1B
1J
0W!
0h!
0a!
#357170
0K
#357471
0[!
#357610
0I
0O
1S!
#357911
0J!
#358000
0L
1Q!
#358560
1Q
0D!
#358950
1R
0B!
#359370
0X
#359671
0;!
#359760
0Y
13!
#360000
0"
0p
#360710
1_
#361011
1.!
#370000
1"
1p
0w!
0\!
0K!
0<!
1/!
00!
1=!
1L!
1]!
1x!
#371850
1'
0z!
#372200
0k
1m!
13"
#372460
0(
0)
0*
0+
11"
1."
#372550
1g
1h
1i
1j
0$"
0&"
05"
0,"
0A"
0?"
09"
08"
0="
0;"
0:"
#373050
0F
1j!
1b!
1l!
#373100
1;
0%"
0#"
0'"
#373360
06
1/"
#373410
15
0*"
#373480
0?
1{!
#373630
1L
1G
0X!
0Q!
#373750
01
1)"
#373950
17
0("
0-"
#374060
1F
0j!
0b!
0l!
#374070
1A
0t!
0n!
#374340
09
1}!
#374410
0=
0<
1s!
1p!
#374440
0R
1B!
#374830
0N
1@!
#375260
08
1""
#375290
1@
#375360
1D
0f!
#375370
0L
0G
1X!
1Q!
#375390
1Y
03!
#375591
1v!
#375780
1Z
07!
#375900
1=
0p!
#376010
1N
0@!
#376170
0J
1W!
#376200
0_
#376320
1R
0B!
#376501
0.!
#376590
0]
1(!
#376710
0D
1f!
#376820
0Z
17!
#377120
1O
#377130
0Y
13!
#377421
1J!
#377540
1b
#377660
1J
0W!
#377770
1]
0(!
#377841
1#!
#378080
1_
#378381
1.!
#378470
0O
#378580
0b
#378771
0J!
#378881
0#!
#380000
0"
0p
#390000
1"
1p
1w!
0x!
#391850
1+
01"
#392200
0g
18"
1="
1;"
#392660
05
1*"
#392840
11
0)"
#393570
19
0}!
#394150
0:
1!"
#394380
0@
#394681
0v!
#395100
1>
0r!
#395910
0C
1d!
#396860
1K
#397161
1[!
#400000
0"
0p
#410000
1"
1p
0w!
1\!
0]!
1x!
#411850
1*
#412200
0h
19"
1:"
1?"
#412460
0+
11"
#412550
1g
08"
0="
0;"
#413410
15
0*"
#414340
09
1}!
#415290
1@
#415591
1v!
#420000
0"
0p
#430000
1"
1p
1w!
0x!
#431850
1+
01"
#432200
0g
18"
1="
1;"
#432660
05
1*"
#433150
16
0/"
#433570
19
0}!
#433960
07
1("
1-"
#434380
0@
#434540
18
0""
#434600
1:
0!"
#434681
0v!
#435410
0>
1r!
#435740
0=
1p!
#436360
1C
0d!
#436690
1D
0f!
#437170
0K
#437471
0[!
#437500
0J
1W!
#438450
1O
#438751
1J!
#440000
0"
0p
#450000
1"
1p
0w!
0\!
1K!
0L!
1]!
1x!
#451850
1)
0."
#452200
0i
1,"
1A"
#452460
0*
0+
11"
#452550
1g
1h
0?"
09"
08"
0="
0;"
0:"
#453050
0;
1%"
1#"
1'"
#453360
06
1/"
#453410
15
0*"
#453630
1=
1<
0s!
0p!
#453750
01
1)"
#453940
1;
0%"
0#"
0'"
#453950
17
0("
0-"
#454340
09
1}!
#454440
0D
1f!
#454830
0B
1h!
#455250
0=
0<
1s!
1p!
#455290
1@
#455390
1J
0W!
#455591
1v!
#455780
1I
0S!
