sim_postlay/dump.vcd
$date
    Nov 22, 2021  12:15:17
$end
$version
    TOOL:	xmsim(64)	18.03-s018
$end
$timescale
    1 ps
$end

$scope module counter_tb_pnr $end

$scope module counter1 $end
$var wire      1 !    out [7] $end
$var wire      1 "    out [6] $end
$var wire      1 #    out [5] $end
$var wire      1 $    out [4] $end
$var wire      1 %    out [3] $end
$var wire      1 &    out [2] $end
$var wire      1 '    out [1] $end
$var wire      1 (    out [0] $end
$var wire      1 )    enable  $end
$var wire      1 *    clk  $end
$var wire      1 +    reset  $end
$var wire      1 ,    CTS_2  $end
$var wire      1 -    CTS_1  $end
$var wire      1 .    FE_OFN3_n_55  $end
$var wire      1 /    FE_OFN2_n_55  $end
$var wire      1 0    FE_OFN1_reset  $end
$var wire      1 1    FE_OFN0_enable  $end
$var wire      1 2    n_3  $end
$var wire      1 3    n_4  $end
$var wire      1 4    n_5  $end
$var wire      1 5    n_6  $end
$var wire      1 6    n_7  $end
$var wire      1 7    n_8  $end
$var wire      1 8    n_9  $end
$var wire      1 9    n_10  $end
$var wire      1 :    n_11  $end
$var wire      1 ;    n_13  $end
$var wire      1 <    n_14  $end
$var wire      1 =    n_16  $end
$var wire      1 >    n_17  $end
$var wire      1 ?    n_18  $end
$var wire      1 @    n_19  $end
$var wire      1 A    n_20  $end
$var wire      1 B    n_21  $end
$var wire      1 C    n_22  $end
$var wire      1 D    n_23  $end
$var wire      1 E    n_24  $end
$var wire      1 F    n_25  $end
$var wire      1 G    n_27  $end
$var wire      1 H    n_28  $end
$var wire      1 I    n_29  $end
$var wire      1 J    n_30  $end
$var wire      1 K    n_31  $end
$var wire      1 L    n_32  $end
$var wire      1 M    n_33  $end
$var wire      1 N    n_34  $end
$var wire      1 O    n_35  $end
$var wire      1 P    n_36  $end
$var wire      1 Q    n_37  $end
$var wire      1 R    n_38  $end
$var wire      1 S    n_40  $end
$var wire      1 T    n_41  $end
$var wire      1 U    n_42  $end
$var wire      1 V    n_43  $end
$var wire      1 W    n_44  $end
$var wire      1 X    n_45  $end
$var wire      1 Y    n_46  $end
$var wire      1 Z    n_47  $end
$var wire      1 [    n_49  $end
$var wire      1 \    n_50  $end
$var wire      1 ]    n_51  $end
$var wire      1 ^    n_52  $end
$var wire      1 _    n_53  $end
$var wire      1 `    n_54  $end
$var wire      1 a    n_55  $end
$var wire      1 b    n_56  $end
$var wire      1 c    n_57  $end
$var wire      1 d    n_58  $end
$var wire      1 e    n_59  $end
$var wire      1 f    n_60  $end
$var wire      1 g    n_61  $end
$var wire      1 h    n_62  $end
$var wire      1 i    n_63  $end
$var wire      1 j    n_64  $end
$var wire      1 k    n_65  $end
$var wire      1 l    out[0]_58  $end
$var wire      1 m    out[1]_59  $end
$var wire      1 n    out[2]_60  $end
$var wire      1 o    out[3]_61  $end
$var wire      1 p    out[4]_62  $end
$var wire      1 q    out[5]_63  $end
$var wire      1 r    out[6]_64  $end
$var wire      1 s    out[7]_65  $end

$scope module CTS_ccl_a_buf_00007 $end
$var wire      1 ,    Y  $end
$var wire      1 *    A  $end
$upscope $end


$scope module CTS_ccl_a_buf_00005 $end
$var wire      1 -    Y  $end
$var wire      1 *    A  $end
$upscope $end


$scope module FE_OFC3_n_55 $end
$var wire      1 .    Y  $end
$var wire      1 /    A  $end
$upscope $end


$scope module FE_OFC2_n_55 $end
$var wire      1 /    Y  $end
$var wire      1 a    A  $end
$upscope $end


$scope module FE_OFC1_reset $end
$var wire      1 0    Y  $end
$var wire      1 +    A  $end
$upscope $end


$scope module FE_OFC0_enable $end
$var wire      1 1    Y  $end
$var wire      1 )    A  $end
$upscope $end


$scope module \out_reg[7]  $end
$var wire      1 -    CK  $end
$var wire      1 k    D  $end
$var reg       1 t    Q $end
$var reg       1 u    QN $end
$upscope $end


$scope module g227__8780 $end
$var wire      1 k    Y  $end
$var wire      1 +    A  $end
$var wire      1 i    B  $end
$var wire      1 v    int_fwire_0  $end
$upscope $end


$scope module \out_reg[6]  $end
$var wire      1 ,    CK  $end
$var wire      1 j    D  $end
$var reg       1 w    Q $end
$var reg       1 x    QN $end
$upscope $end


$scope module g229__4296 $end
$var wire      1 j    Y  $end
$var wire      1 0    A  $end
$var wire      1 g    B  $end
$var wire      1 y    int_fwire_0  $end
$upscope $end


$scope module g228__3772 $end
$var wire      1 i    Y  $end
$var wire      1 2    A  $end
$var wire      1 f    B  $end
$var wire      1 z    int_fwire_0  $end
$upscope $end


$scope module \out_reg[5]  $end
$var wire      1 -    CK  $end
$var wire      1 h    D  $end
$var reg       1 {    Q $end
$var reg       1 |    QN $end
$upscope $end


$scope module g233__1474 $end
$var wire      1 h    Y  $end
$var wire      1 +    A  $end
$var wire      1 c    B  $end
$var wire      1 }    int_fwire_0  $end
$upscope $end


$scope module g234__4547 $end
$var wire      1 g    Y  $end
$var wire      1 8    A  $end
$var wire      1 b    B  $end
$var wire      1 ~    int_fwire_0  $end
$upscope $end


$scope module g231__9682 $end
$var wire      1 f    Y  $end
$var wire      1 a    A  $end
$var wire      1 d    B  $end
$var wire      1 !!   int_fwire_0  $end
$upscope $end


$scope module \out_reg[4]  $end
$var wire      1 -    CK  $end
$var wire      1 e    D  $end
$var reg       1 "!   Q $end
$var reg       1 #!   QN $end
$upscope $end


$scope module g235__2683 $end
$var wire      1 e    Y  $end
$var wire      1 +    A  $end
$var wire      1 _    B  $end
$var wire      1 $!   int_fwire_0  $end
$upscope $end


$scope module g236__1309 $end
$var wire      1 d    Y  $end
$var wire      1 \    A  $end
$var wire      1 [    B  $end
$var wire      1 %!   int_fwire_0  $end
$upscope $end


$scope module g237__6877 $end
$var wire      1 c    Y  $end
$var wire      1 3    A  $end
$var wire      1 `    B  $end
$var wire      1 &!   int_fwire_0  $end
$upscope $end


$scope module g238__2900 $end
$var wire      1 b    Y  $end
$var wire      1 .    A  $end
$var wire      1 ]    B  $end
$var wire      1 '!   int_fwire_0  $end
$upscope $end


$scope module \out_reg[3]  $end
$var wire      1 -    CK  $end
$var wire      1 ^    D  $end
$var reg       1 (!   Q $end
$var reg       1 )!   QN $end
$upscope $end


$scope module g243__2391 $end
$var wire      1 `    Y  $end
$var wire      1 a    A  $end
$var wire      1 T    B  $end
$var wire      1 *!   int_fwire_0  $end
$upscope $end


$scope module g244__7675 $end
$var wire      1 _    Y  $end
$var wire      1 :    A  $end
$var wire      1 X    B  $end
$var wire      1 +!   int_fwire_0  $end
$upscope $end


$scope module g245__7118 $end
$var wire      1 ^    Y  $end
$var wire      1 0    A  $end
$var wire      1 W    B  $end
$var wire      1 ,!   int_fwire_0  $end
$upscope $end


$scope module g246__8757 $end
$var wire      1 ]    Y  $end
$var wire      1 V    A  $end
$var wire      1 Z    B  $end
$var wire      1 -!   int_fwire_0  $end
$upscope $end


$scope module g240__1786 $end
$var wire      1 \    Y  $end
$var wire      1 s    A  $end
$var wire      1 Y    B  $end
$var wire      1 .!   int_fwire_0  $end
$upscope $end


$scope module \out_reg[2]  $end
$var wire      1 ,    CK  $end
$var wire      1 U    D  $end
$var reg       1 /!   Q $end
$var reg       1 0!   QN $end
$upscope $end


$scope module g241__5953 $end
$var wire      1 [    Y  $end
$var wire      1 1!   A  $end
$var wire      1 Z    B  $end
$var wire      1 2!   int_fwire_0  $end
$upscope $end


$scope module g247 $end
$var wire      1 Y    Y  $end
$var wire      1 Z    A  $end
$upscope $end


$scope module g248__5703 $end
$var wire      1 X    Y  $end
$var wire      1 a    A  $end
$var wire      1 R    B  $end
$var wire      1 3!   int_fwire_0  $end
$upscope $end


$scope module g251__7114 $end
$var wire      1 W    Y  $end
$var wire      1 9    A  $end
$var wire      1 O    B  $end
$var wire      1 4!   int_fwire_0  $end
$upscope $end


$scope module g254__5266 $end
$var wire      1 V    Y  $end
$var wire      1 r    A  $end
$var wire      1 S    B  $end
$var wire      1 5!   int_fwire_0  $end
$upscope $end


$scope module g253__2250 $end
$var wire      1 U    Y  $end
$var wire      1 0    A  $end
$var wire      1 P    B  $end
$var wire      1 6!   int_fwire_0  $end
$upscope $end


$scope module g252__6083 $end
$var wire      1 T    Y  $end
$var wire      1 M    A  $end
$var wire      1 S    B  $end
$var wire      1 7!   int_fwire_0  $end
$upscope $end


$scope module \out_reg[1]  $end
$var wire      1 ,    CK  $end
$var wire      1 Q    D  $end
$var reg       1 8!   Q $end
$var reg       1 9!   QN $end
$upscope $end


$scope module g249__2703 $end
$var wire      1 Z    Y  $end
$var wire      1 :!   A  $end
$var wire      1 N    B  $end
$var wire      1 ;!   int_fwire_0  $end
$upscope $end


$scope module g256__5795 $end
$var wire      1 R    Y  $end
$var wire      1 K    A  $end
$var wire      1 L    B  $end
$var wire      1 <!   int_fwire_0  $end
$upscope $end


$scope module g257__7344 $end
$var wire      1 Q    Y  $end
$var wire      1 0    A  $end
$var wire      1 I    B  $end
$var wire      1 =!   int_fwire_0  $end
$upscope $end


$scope module g259__1840 $end
$var wire      1 P    Y  $end
$var wire      1 4    A  $end
$var wire      1 J    B  $end
$var wire      1 >!   int_fwire_0  $end
$upscope $end


$scope module g255__5019 $end
$var wire      1 O    Y  $end
$var wire      1 .    A  $end
$var wire      1 H    B  $end
$var wire      1 ?!   int_fwire_0  $end
$upscope $end


$scope module g258 $end
$var wire      1 S    Y  $end
$var wire      1 N    A  $end
$upscope $end


$scope module g260__1857 $end
$var wire      1 M    Y  $end
$var wire      1 q    A  $end
$var wire      1 L    B  $end
$var wire      1 @!   int_fwire_0  $end
$upscope $end


$scope module g261__9906 $end
$var wire      1 N    Y  $end
$var wire      1 q    A  $end
$var wire      1 L    B  $end
$var wire      1 A!   int_fwire_0  $end
$upscope $end


$scope module g265__8780 $end
$var wire      1 K    Y  $end
$var wire      1 p    A  $end
$var wire      1 G    B  $end
$var wire      1 B!   int_fwire_0  $end
$upscope $end


$scope module g266__4296 $end
$var wire      1 J    Y  $end
$var wire      1 .    A  $end
$var wire      1 C    B  $end
$var wire      1 C!   int_fwire_0  $end
$upscope $end


$scope module g262__3772 $end
$var wire      1 I    Y  $end
$var wire      1 5    A  $end
$var wire      1 D    B  $end
$var wire      1 D!   int_fwire_0  $end
$upscope $end


$scope module g263__1474 $end
$var wire      1 H    Y  $end
$var wire      1 B    A  $end
$var wire      1 G    B  $end
$var wire      1 E!   int_fwire_0  $end
$upscope $end


$scope module \out_reg[0]  $end
$var wire      1 ,    CK  $end
$var wire      1 F    D  $end
$var reg       1 F!   Q $end
$var reg       1 G!   QN $end
$upscope $end


$scope module g267__4547 $end
$var wire      1 L    Y  $end
$var wire      1 H!   A  $end
$var wire      1 E    B  $end
$var wire      1 I!   int_fwire_0  $end
$upscope $end


$scope module g268__9682 $end
$var wire      1 F    Y  $end
$var wire      1 0    A  $end
$var wire      1 ?    B  $end
$var wire      1 J!   int_fwire_0  $end
$upscope $end


$scope module g270 $end
$var wire      1 G    Y  $end
$var wire      1 E    A  $end
$upscope $end


$scope module g271__2683 $end
$var wire      1 D    Y  $end
$var wire      1 .    A  $end
$var wire      1 @    B  $end
$var wire      1 K!   int_fwire_0  $end
$upscope $end


$scope module g272__1309 $end
$var wire      1 C    Y  $end
$var wire      1 >    A  $end
$var wire      1 A    B  $end
$var wire      1 L!   int_fwire_0  $end
$upscope $end


$scope module g269__6877 $end
$var wire      1 B    Y  $end
$var wire      1 o    A  $end
$var wire      1 A    B  $end
$var wire      1 M!   int_fwire_0  $end
$upscope $end


$scope module g273__2900 $end
$var wire      1 E    Y  $end
$var wire      1 o    A  $end
$var wire      1 A    B  $end
$var wire      1 N!   int_fwire_0  $end
$upscope $end


$scope module g275__2391 $end
$var wire      1 @    Y  $end
$var wire      1 =    A  $end
$var wire      1 7    B  $end
$var wire      1 O!   int_fwire_0  $end
$upscope $end


$scope module g276__7675 $end
$var wire      1 ?    Y  $end
$var wire      1 ;    A  $end
$var wire      1 6    B  $end
$var wire      1 P!   int_fwire_0  $end
$upscope $end


$scope module g274__7118 $end
$var wire      1 >    Y  $end
$var wire      1 n    A  $end
$var wire      1 =    B  $end
$var wire      1 Q!   int_fwire_0  $end
$upscope $end


$scope module g277__8757 $end
$var wire      1 A    Y  $end
$var wire      1 R!   A  $end
$var wire      1 <    B  $end
$var wire      1 S!   int_fwire_0  $end
$upscope $end


$scope module g278 $end
$var wire      1 =    Y  $end
$var wire      1 <    A  $end
$upscope $end


$scope module g281__1786 $end
$var wire      1 ;    Y  $end
$var wire      1 .    A  $end
$var wire      1 T!   B  $end
$var wire      1 U!   int_fwire_0  $end
$upscope $end


$scope module g284__5953 $end
$var wire      1 :    Y  $end
$var wire      1 )    A  $end
$var wire      1 p    B  $end
$var wire      1 V!   int_fwire_0  $end
$upscope $end


$scope module g282__5703 $end
$var wire      1 9    Y  $end
$var wire      1 1    A  $end
$var wire      1 o    B  $end
$var wire      1 W!   int_fwire_0  $end
$upscope $end


$scope module g280__7114 $end
$var wire      1 8    Y  $end
$var wire      1 1    A  $end
$var wire      1 r    B  $end
$var wire      1 X!   int_fwire_0  $end
$upscope $end


$scope module g285__5266 $end
$var wire      1 7    Y  $end
$var wire      1 l    A  $end
$var wire      1 m    B  $end
$var wire      1 Y!   int_fwire_0  $end
$upscope $end


$scope module g283__2250 $end
$var wire      1 <    Y  $end
$var wire      1 m    A  $end
$var wire      1 l    B  $end
$var wire      1 Z!   int_fwire_0  $end
$upscope $end


$scope module g289__6083 $end
$var wire      1 6    Y  $end
$var wire      1 1    A  $end
$var wire      1 l    B  $end
$var wire      1 [!   int_fwire_0  $end
$upscope $end


$scope module g288__2703 $end
$var wire      1 5    Y  $end
$var wire      1 1    A  $end
$var wire      1 m    B  $end
$var wire      1 \!   int_fwire_0  $end
$upscope $end


$scope module g286__5795 $end
$var wire      1 4    Y  $end
$var wire      1 1    A  $end
$var wire      1 n    B  $end
$var wire      1 ]!   int_fwire_0  $end
$upscope $end


$scope module g287__7344 $end
$var wire      1 3    Y  $end
$var wire      1 )    A  $end
$var wire      1 q    B  $end
$var wire      1 ^!   int_fwire_0  $end
$upscope $end


$scope module g279__1840 $end
$var wire      1 2    Y  $end
$var wire      1 )    A  $end
$var wire      1 s    B  $end
$var wire      1 _!   int_fwire_0  $end
$upscope $end


$scope module g298 $end
$var wire      1 a    Y  $end
$var wire      1 )    A  $end
$upscope $end

$upscope $end

$upscope $end

$enddefinitions $end
$dumpvars
x!
x"
x#
x$
x%
x&
x'
x(
0)
0*
0+
x,
x-
x.
x/
x0
x1
x2
x3
x4
x5
x6
x7
x8
x9
x:
x;
x<
x=
x>
x?
x@
xA
xB
xC
xD
xE
xF
xG
xH
xI
xJ
xK
xL
xM
xN
xO
xP
xQ
xR
xS
xT
xU
xV
xW
xX
xY
xZ
x[
x\
x]
x^
x_
x`
xa
xb
xc
xd
xe
xf
xg
xh
xi
xj
xk
xl
xm
xn
xo
xp
xq
xr
xs
xt
xu
xv
xw
xx
xy
xz
x{
x|
x}
x~
x!!
x"!
x#!
x$!
x%!
x&!
x'!
x(!
x)!
x*!
x+!
x,!
x-!
x.!
x/!
x0!
x1!
x2!
x3!
x4!
x5!
x6!
x7!
x8!
x9!
x:!
x;!
x<!
x=!
x>!
x?!
x@!
xA!
xB!
xC!
xD!
xE!
xF!
xG!
xH!
xI!
xJ!
xK!
xL!
xM!
xN!
xO!
xP!
xQ!
xR!
xS!
xT!
xU!
xV!
xW!
xX!
xY!
xZ!
x[!
x\!
x]!
x^!
x_!
$end
#710
1a
13!
1*!
1!!
#880
0-
#900
0,
#1000
00
#1060
01
#1160
0/
#1210
0`
0X
#1220
0f
#1910
1.
1U!
1K!
1C!
1?!
1'!
#2450
0D
#2460
0O
0J
#2470
0b
#2490
0;
#10000
1*
#10860
1-
#10870
1,
#20000
0*
#20880
0-
#20900
0,
#24000
1+
1$!
1}
1v
#24460
0k
0h
0e
#24980
10
1J!
1=!
16!
1,!
1y
#25470
0j
0^
0U
0Q
0F
#30000
1*
#30860
1-
0(!
1)!
0"!
1#!
0{
1|
0t
1u
1s
01!
1q
1p
0H!
1o
0%
1N!
1W!
0I!
1V!
1A!
1^!
1.!
1_!
#30861
0$
0#
0!
#30870
1,
0F!
1G!
08!
19!
0/!
10!
0w
1x
1r
0:!
1n
0R!
1m
1l
0T!
1[!
1Y!
1Z!
1\!
0S!
1]!
0;!
1X!
#30871
0(
0'
0"
#30873
0&
#31190
0:
0+!
#31210
08
02
0z
0~
#31230
06
0P!
#31240
04
03
09
04!
0&!
0>!
#31260
05
0D!
#31320
0\
#31420
07
0O!
#31430
0<
#31500
0N
#31510
1L
0E
1@!
#31540
1Z
12!
#31570
1A
1M!
#31630
1?
1_
#31640
1i
#31680
1c
1W
1g
#31710
1@
#31720
1I
#31760
1P
#31910
1=
1Q!
#31920
0Y
#31960
0[
1G
1S
15!
1B!
0%!
#32100
0M
07!
#32190
0B
0E!
#32410
1d
#32450
1T
0>
0L!
#32480
0K
0V
0-!
0<!
#32540
1H
#32790
1C
#32810
1R
#32820
1]
#40000
0*
#40880
0-
#40900
0,
#44000
0+
#45000
00
#50000
1*
#50860
1-
#50870
1,
#60000
0*
#60880
0-
#60900
0,
#64000
1)
#64820
0a
#65030
11
#65210
1/
#66150
0.
0U!
#66700
1;
1P!
#67170
0?
0J!
#67600
1F
#70000
1*
#70860
1-
#70870
1,
1F!
0G!
0l
1T!
1U!
0Y!
#70871
1(
#71220
17
1O!
#71260
0;
0P!
#71680
0@
0K!
#71710
1?
1J!
#72090
0F
1D
1D!
#72480
0I
0=!
#72910
1Q
#80000
0*
#80880
0-
#80900
0,
#90000
1*
#90860
1-
#90870
1,
0F!
1G!
18!
09!
0m
1l
0T!
0U!
#90871
0(
1'
#91350
1;
1P!
#91820
0?
0J!
#92250
1F
#100000
0*
#100880
0-
#100900
0,
#110000
1*
#110860
1-
#110870
1,
1F!
0G!
0l
1T!
1U!
0Z!
#110871
1(
#111260
0;
0P!
#111610
1<
#111710
1?
1J!
#112090
0F
#112240
0=
0O!
0Q!
#112540
1>
1L!
#112580
1@
1K!
#112880
0D
0D!
#113010
0C
0C!
#113310
1I
1=!
#113440
1J
1>!
#113690
0Q
#113880
0P
06!
#114330
1U
#120000
0*
#120880
0-
#120900
0,
#130000
1*
#130860
1-
#130870
1,
0F!
1G!
08!
19!
1/!
00!
0n
1R!
1m
1l
0T!
0U!
1Y!
1Z!
1S!
#130871
0(
0'
#130873
1&
#131350
1;
1P!
#131420
07
#131430
0<
0S!
#131820
0?
0J!
#131910
1=
#132250
1F
#140000
0*
#140880
0-
#140900
0,
#150000
1*
#150860
1-
#150870
1,
1F!
0G!
0l
1T!
1U!
0Y!
#150871
1(
#151220
17
1O!
#151260
0;
0P!
#151680
0@
0K!
#151710
1?
1J!
#152090
0F
1D
1D!
#152480
0I
0=!
#152910
1Q
#160000
0*
#160880
0-
#160900
0,
#170000
1*
#170860
1-
#170870
1,
0F!
1G!
18!
09!
0m
1l
0T!
0U!
#170871
0(
1'
#171350
1;
1P!
#171820
0?
0J!
#172250
1F
#180000
0*
#180880
0-
#180900
0,
#190000
1*
#190860
1-
#190870
1,
1F!
0G!
0l
1T!
1U!
0Z!
#190871
1(
#191260
0;
0P!
#191610
1<
1S!
#191710
1?
1J!
#192090
0F
#192240
0=
0O!
#192580
1@
1K!
#192880
0D
0D!
#192980
0A
0M!
0L!
#193310
1I
1=!
#193340
1C
1C!
#193350
1B
1E!
#193690
0J
0Q
0>!
#193870
0H
0?!
#194190
1P
16!
#194300
1O
14!
#194600
0U
#194680
0W
0,!
#195100
1^
#200000
0*
#200880
0-
#200900
0,
#210000
1*
#210860
1-
1(!
0)!
0o
1%
0N!
#210870
1,
0F!
1G!
08!
19!
0/!
10!
1n
0R!
1m
1l
0T!
0U!
1Y!
1Z!
0S!
#210871
0(
0'
#210873
0&
#211350
1;
1P!
#211420
07
#211430
0<
#211570
1A
1L!
1N!
#211820
0?
0J!
#211910
1=
1Q!
#212170
0C
0C!
#212250
1F
#212450
0>
0L!
#212600
1J
1>!
#212790
1C
1C!
#213040
0P
06!
#213140
0J
0>!
#213490
1U
#213640
1P
16!
#214050
0U
#220000
0*
#220880
0-
#220900
0,
#230000
1*
#230860
1-
#230870
1,
1F!
0G!
0l
1T!
1U!
0Y!
#230871
1(
#231220
17
1O!
#231260
0;
0P!
#231680
0@
0K!
#231710
1?
1J!
#232090
0F
1D
1D!
#232480
0I
0=!
#232910
1Q
#240000
0*
#240880
0-
#240900
0,
#250000
1*
#250860
1-
#250870
1,
0F!
1G!
18!
09!
0m
1l
0T!
0U!
#250871
0(
1'
#251350
1;
1P!
#251820
0?
0J!
#252250
1F
#260000
0*
#260880
0-
#260900
0,
#270000
1*
#270860
1-
#270870
1,
1F!
0G!
0l
1T!
1U!
0Z!
#270871
1(
#271260
0;
0P!
#271610
1<
#271710
1?
1J!
#272090
0F
#272240
0=
0O!
0Q!
#272540
1>
1L!
#272580
1@
1K!
#272880
0D
0D!
#273010
0C
0C!
#273310
1I
1=!
#273440
1J
1>!
#273690
0Q
#273880
0P
06!
#274330
1U
#280000
0*
#280880
0-
#280900
0,
#290000
1*
#290860
1-
#290870
1,
0F!
1G!
08!
19!
1/!
00!
0n
1R!
1m
1l
0T!
0U!
1Y!
1Z!
1S!
#290871
0(
0'
#290873
1&
#291350
1;
1P!
#291420
07
#291430
0<
0S!
#291820
0?
0J!
#291910
1=
#292250
1F
#300000
0*
#300880
0-
#300900
0,
#310000
1*
#310860
1-
#310870
1,
1F!
0G!
0l
1T!
1U!
0Y!
#310871
1(
#311220
17
1O!
#311260
0;
0P!
#311680
0@
0K!
#311710
1?
1J!
#312090
0F
1D
1D!
#312480
0I
0=!
#312910
1Q
#320000
0*
#320880
0-
#320900
0,
#330000
1*
#330860
1-
#330870
1,
0F!
1G!
18!
09!
0m
1l
0T!
0U!
#330871
0(
1'
#331350
1;
1P!
#331820
0?
0J!
#332250
1F
#340000
0*
#340880
0-
#340900
0,
#350000
1*
#350860
1-
#350870
1,
1F!
0G!
0l
1T!
1U!
0Z!
#350871
1(
#351260
0;
0P!
#351610
1<
1S!
#351710
1?
1J!
#352090
0F
#352240
0=
0O!
#352580
1@
1K!
#352880
0D
0D!
#352980
0A
0L!
0N!
#353310
1I
1=!
#353340
1C
1C!
#353690
0J
0Q
0>!
#353920
1E
#354190
1P
16!
#354550
0G
0E!
0B!
#354600
0U
#354850
1K
1<!
#354860
1H
1?!
#355170
0O
04!
#355310
0R
03!
#355590
1W
1,!
#355730
1X
1+!
#355970
0^
#356100
0_
0$!
#356520
1e
#360000
0*
#360880
0-
#360900
0,
#370000
1*
#370860
1-
0(!
1)!
1"!
0#!
0p
1H!
1o
0%
1N!
1I!
#370861
1$
#370870
1,
0F!
1G!
08!
19!
0/!
10!
1n
0R!
1m
1l
0T!
0U!
1Y!
1Z!
0S!
#370871
0(
0'
#370873
0&
#371350
1;
1P!
#371420
07
#371430
0<
#371510
0E
0I!
#371570
1A
1M!
1L!
#371820
0?
0J!
#371910
1=
1Q!
#371960
1G
1E!
#372170
0C
0C!
#372190
0B
0E!
#372250
1F
#372450
0>
0L!
#372600
1J
1>!
#372790
1C
1C!
#373040
0P
06!
#373140
0J
0>!
#373490
1U
#373640
1P
16!
#374050
0U
#380000
0*
#380880
0-
#380900
0,
#390000
1*
#390860
1-
#390870
1,
1F!
0G!
0l
1T!
1U!
0Y!
#390871
1(
#391220
17
1O!
#391260
0;
0P!
#391680
0@
0K!
#391710
1?
1J!
#392090
0F
1D
1D!
#392480
0I
0=!
#392910
1Q
#400000
0*
#400880
0-
#400900
0,
#410000
1*
#410860
1-
#410870
1,
0F!
1G!
18!
09!
0m
1l
0T!
0U!
#410871
0(
1'
#411350
1;
1P!
#411820
0?
0J!
#412250
1F
#420000
0*
#420880
0-
#420900
0,
#430000
1*
#430860
1-
#430870
1,
1F!
0G!
0l
1T!
1U!
0Z!
#430871
1(
#431260
0;
0P!
#431610
1<
#431710
1?
1J!
#432090
0F
#432240
0=
0O!
0Q!
#432540
1>
1L!
#432580
1@
1K!
#432880
0D
0D!
#433010
0C
0C!
#433310
1I
1=!
#433440
1J
1>!
#433690
0Q
#433880
0P
06!
#434330
1U
#440000
0*
#440880
0-
#440900
0,
#450000
1*
#450860
1-
#450870
1,
0F!
1G!
08!
19!
1/!
00!
0n
1R!
1m
1l
0T!
0U!
1Y!
1Z!
1S!
#450871
0(
0'
#450873
1&
#451350
1;
1P!
#451420
07
#451430
0<
0S!
#451820
0?
0J!
#451910
1=
#452250
1F
#460000
0*
#460880
0-
#460900
0,
#470000
1*
#470860
1-
#470870
1,
1F!
0G!
0l
1T!
1U!
0Y!
#470871
1(
#471220
17
1O!
#471260
0;
0P!
#471680
0@
0K!
#471710
1?
1J!
#472090
0F
1D
1D!
#472480
0I
0=!
#472910
1Q
#480000
0*
#480880
0-
#480900
0,
#490000
1*
#490860
1-
#490870
1,
0F!
1G!
18!
09!
0m
1l
0T!
0U!
#490871
0(
1'
#491350
1;
1P!
#491820
0?
0J!
#492250
1F
#500000
0*
#500880
0-
#500900
0,
#510000
1*
#510860
1-
#510870
1,
1F!
0G!
0l
1T!
1U!
0Z!
#510871
1(
#511260
0;
0P!
#511610
1<
1S!
#511710
1?
1J!
#512090
0F
#512240
0=
0O!
#512580
1@
1K!
#512880
0D
0D!
#512980
0A
0M!
0L!
#513310
1I
1=!
#513340
1C
1C!
#513350
1B
1E!
#513690
0J
0Q
0>!
#513870
0H
0?!
#514190
1P
16!
#514300
1O
14!
#514600
0U
#514680
0W
0,!
#515100
1^
#520000
0*
#520880
0-
#520900
0,
#530000
1*
#530860
1-
1(!
0)!
0o
1%
0N!
#530870
1,
0F!
1G!
08!
19!
0/!
10!
1n
0R!
1m
1l
0T!
0U!
1Y!
1Z!
0S!
#530871
0(
0'
#530873
0&
#531350
1;
1P!
#531420
07
#531430
0<
#531570
1A
1L!
1N!
#531820
0?
0J!
#531910
1=
1Q!
#532170
0C
0C!
#532250
1F
#532450
0>
0L!
#532600
1J
1>!
#532790
1C
1C!
#533040
0P
06!
#533140
0J
0>!
#533490
1U
#533640
1P
16!
#534050
0U
#540000
0*
#540880
0-
#540900
0,
#550000
1*
#550860
1-
#550870
1,
1F!
0G!
0l
1T!
1U!
0Y!
#550871
1(
#551220
17
1O!
#551260
0;
0P!
#551680
0@
0K!
#551710
1?
1J!
#552090
0F
1D
1D!
#552480
0I
0=!
#552910
1Q
